(module Conn_Molex_01x02_Male_705430001 (layer F.Cu) (tedit 5FB90025)
  (fp_text reference REF** (at -0.655 -6.985) (layer F.SilkS)
    (effects (font (size 1 1) (thickness 0.15)))
  )
  (fp_text value Conn_Molex_01x02_705430001 (at 1.885 4.445) (layer F.Fab)
    (effects (font (size 1 1) (thickness 0.15)))
  )
  (fp_line (start -2.179 -2.159) (end -2.179 2.159) (layer F.SilkS) (width 0.12))
  (fp_line (start 4.679 2.159) (end -2.179 2.159) (layer F.SilkS) (width 0.12))
  (fp_line (start 4.679 -2.159) (end 4.679 2.159) (layer F.SilkS) (width 0.12))
  (fp_line (start 3.282 -2.159) (end 4.679 -2.159) (layer F.SilkS) (width 0.12))
  (fp_line (start 3.282 -3.683) (end 3.282 -2.159) (layer F.SilkS) (width 0.12))
  (fp_line (start -0.782 -3.683) (end 3.282 -3.683) (layer F.SilkS) (width 0.12))
  (fp_line (start -0.782 -2.159) (end -0.782 -3.683) (layer F.SilkS) (width 0.12))
  (fp_line (start -2.179 -2.159) (end -0.782 -2.159) (layer F.SilkS) (width 0.12))
  (fp_line (start 3.54 -2.42) (end 4.94 -2.42) (layer F.CrtYd) (width 0.12))
  (fp_line (start 3.54 -3.95) (end 3.54 -2.42) (layer F.CrtYd) (width 0.12))
  (fp_line (start -1.04 -3.95) (end 3.54 -3.95) (layer F.CrtYd) (width 0.12))
  (fp_line (start -1.04 -2.42) (end -1.04 -3.95) (layer F.CrtYd) (width 0.12))
  (fp_line (start -1.04 -2.42) (end -2.44 -2.42) (layer F.CrtYd) (width 0.12))
  (fp_line (start 4.94 2.42) (end 4.94 -2.42) (layer F.CrtYd) (width 0.12))
  (fp_line (start -2.44 2.42) (end 4.94 2.42) (layer F.CrtYd) (width 0.12))
  (fp_line (start -2.44 -2.42) (end -2.44 2.42) (layer F.CrtYd) (width 0.12))
  (pad 1 thru_hole rect (at -0.02 0) (size 1.7 1.7) (drill 1.09) (layers *.Cu *.Mask))
  (pad 2 thru_hole circle (at 2.54 0) (size 1.7 1.7) (drill 1.09) (layers *.Cu *.Mask))
  (model "${KICAD_USER_3DMOD}/Molex 705430001/705430001.stp"
    (offset (xyz 1.25 0 8))
    (scale (xyz 1 1 1))
    (rotate (xyz 0 0 0))
  )
)
