PCBNEW-LibModule-V1  2021-08-21 16:31:31
# encoding utf-8
Units mm
$INDEX
SOIC127P600X175-8N
$EndINDEX
$MODULE SOIC127P600X175-8N
Po 0 0 0 15 61211c53 00000000 ~~
Li SOIC127P600X175-8N
Cd 8-pin soic n
Kw Integrated Circuit
Sc 0
At SMD
AR 
Op 0 0 0
T0 0 0 1.27 1.27 0 0.254 N V 21 N "IC**"
T1 0 0 1.27 1.27 0 0.254 N I 21 N "SOIC127P600X175-8N"
DS -3.7 -2.7 3.7 -2.7 0.05 24
DS 3.7 -2.7 3.7 2.7 0.05 24
DS 3.7 2.7 -3.7 2.7 0.05 24
DS -3.7 2.7 -3.7 -2.7 0.05 24
DS -1.95 -2.45 1.95 -2.45 0.1 24
DS 1.95 -2.45 1.95 2.45 0.1 24
DS 1.95 2.45 -1.95 2.45 0.1 24
DS -1.95 2.45 -1.95 -2.45 0.1 24
DS -1.95 -1.18 -0.68 -2.45 0.1 24
DS -1.6 -2.45 1.6 -2.45 0.2 21
DS 1.6 -2.45 1.6 2.45 0.2 21
DS 1.6 2.45 -1.6 2.45 0.2 21
DS -1.6 2.45 -1.6 -2.45 0.2 21
DS -3.45 -2.58 -1.95 -2.58 0.2 21
$PAD
Po -2.7 -1.905
Sh "1" R 0.65 1.5 0 0 900
At SMD N 00888000
Ne 0 ""
$EndPAD
$PAD
Po -2.7 -0.635
Sh "2" R 0.65 1.5 0 0 900
At SMD N 00888000
Ne 0 ""
$EndPAD
$PAD
Po -2.7 0.635
Sh "3" R 0.65 1.5 0 0 900
At SMD N 00888000
Ne 0 ""
$EndPAD
$PAD
Po -2.7 1.905
Sh "4" R 0.65 1.5 0 0 900
At SMD N 00888000
Ne 0 ""
$EndPAD
$PAD
Po 2.7 1.905
Sh "5" R 0.65 1.5 0 0 900
At SMD N 00888000
Ne 0 ""
$EndPAD
$PAD
Po 2.7 0.635
Sh "6" R 0.65 1.5 0 0 900
At SMD N 00888000
Ne 0 ""
$EndPAD
$PAD
Po 2.7 -0.635
Sh "7" R 0.65 1.5 0 0 900
At SMD N 00888000
Ne 0 ""
$EndPAD
$PAD
Po 2.7 -1.905
Sh "8" R 0.65 1.5 0 0 900
At SMD N 00888000
Ne 0 ""
$EndPAD
$EndMODULE SOIC127P600X175-8N
$EndLIBRARY
