(module SWITCHCRAFT_RAPC722X (layer F.Cu) (tedit 61228267)
  (fp_text reference REF** (at -1.325 -10.135) (layer F.SilkS)
    (effects (font (size 1 1) (thickness 0.15)))
  )
  (fp_text value SWITCHCRAFT_RAPC722X (at 8.2 -8.635) (layer F.Fab)
    (effects (font (size 1 1) (thickness 0.15)))
  )
  (fp_line (start 4.5 -7.01) (end 2.6 -7.01) (layer F.SilkS) (width 0.127))
  (fp_line (start -2.6 -7.01) (end -4.5 -7.01) (layer F.SilkS) (width 0.127))
  (fp_line (start -4.5 -7.01) (end -4.5 7.49) (layer F.SilkS) (width 0.127))
  (fp_line (start 4.5 7.49) (end 4.5 -0.905) (layer F.SilkS) (width 0.127))
  (fp_line (start 4.5 -5.595) (end 4.5 -7.01) (layer F.SilkS) (width 0.127))
  (fp_line (start 4.75 -7.64) (end -4.75 -7.64) (layer F.CrtYd) (width 0.05))
  (fp_line (start -4.75 -7.64) (end -4.75 7.74) (layer F.CrtYd) (width 0.05))
  (fp_line (start -4.75 7.74) (end 4.75 7.74) (layer F.CrtYd) (width 0.05))
  (fp_line (start 4.75 7.74) (end 4.75 -0.975) (layer F.CrtYd) (width 0.05))
  (fp_line (start 4.75 -0.975) (end 6.0625 -0.975) (layer F.CrtYd) (width 0.05))
  (fp_line (start 6.0625 -0.975) (end 6.0625 -5.525) (layer F.CrtYd) (width 0.05))
  (fp_line (start 6.0625 -5.525) (end 4.75 -5.525) (layer F.CrtYd) (width 0.05))
  (fp_line (start 4.75 -5.525) (end 4.75 -7.64) (layer F.CrtYd) (width 0.05))
  (fp_line (start -4.5 7.49) (end 4.5 7.49) (layer F.SilkS) (width 0.127))
  (fp_line (start -4.5 -7.01) (end -4.5 7.49) (layer F.Fab) (width 0.127))
  (fp_line (start 4.5 7.49) (end 4.5 -7.01) (layer F.Fab) (width 0.127))
  (fp_line (start 4.5 -7.01) (end -4.5 -7.01) (layer F.Fab) (width 0.127))
  (fp_line (start -4.5 7.49) (end 4.5 7.49) (layer F.Fab) (width 0.127))
  (pad SLEEVE thru_hole oval (at 0 0) (size 4.05 2.025) (drill oval 3.05 0.76) (layers *.Cu *.Mask))
  (pad SHUNT thru_hole oval (at 4.8 -3.25) (size 2.025 4.05) (drill oval 0.76 3.05) (layers *.Cu *.Mask))
  (pad PIN thru_hole oval (at 0 -6.25) (size 4.56 2.28) (drill oval 3.56 1.02) (layers *.Cu *.Mask))
  (model ${KIPRJMOD}/library/kicad-user-packages3D/RAPC722X/RAPC722X.step
    (offset (xyz 0 -7.5 6.6))
    (scale (xyz 1 1 1))
    (rotate (xyz 90 180 -180))
  )
)
