(module "PJRC TFT 320x240" (layer F.Cu) (tedit 612117A2)
  (fp_text reference REF** (at 43.815 17.78) (layer F.SilkS)
    (effects (font (size 1 1) (thickness 0.15)))
  )
  (fp_text value "PJRC TFT 320x240" (at 45.085 19.685) (layer F.Fab)
    (effects (font (size 1 1) (thickness 0.15)))
  )
  (fp_line (start -2.3 -11.07) (end -2.3 44.09) (layer Dwgs.User) (width 0.12))
  (fp_line (start -2.3 -11.07) (end 86.98 -11.07) (layer Dwgs.User) (width 0.12))
  (fp_line (start -2.3 44.09) (end 86.98 44.09) (layer Dwgs.User) (width 0.12))
  (fp_line (start 86.98 44.09) (end 86.98 -11.07) (layer Dwgs.User) (width 0.12))
  (fp_line (start 3.83 -11.07) (end 3.83 44.09) (layer Dwgs.User) (width 0.12))
  (fp_line (start 81.48 -11.07) (end 81.48 44.09) (layer Dwgs.User) (width 0.12))
  (fp_circle (center 0.76 40.99) (end 2.36 40.99) (layer Dwgs.User) (width 0.12))
  (fp_circle (center 83.96 40.99) (end 85.56 40.99) (layer Dwgs.User) (width 0.12))
  (fp_circle (center 83.96 -7.97) (end 85.56 -7.97) (layer Dwgs.User) (width 0.12))
  (fp_circle (center 0.76 -7.97) (end 2.36 -7.97) (layer Dwgs.User) (width 0.12))
  (fp_line (start -1.5 -1.524) (end 1.5 -1.524) (layer F.CrtYd) (width 0.12))
  (fp_line (start 1.5 -1.5) (end 1.524 34.544) (layer F.CrtYd) (width 0.12))
  (fp_line (start -1.524 34.544) (end 1.524 34.544) (layer F.CrtYd) (width 0.12))
  (fp_line (start -1.524 -1.524) (end -1.524 34.544) (layer F.CrtYd) (width 0.12))
  (fp_line (start -1.524 -1.524) (end 1.524 -1.524) (layer B.CrtYd) (width 0.12))
  (fp_line (start 1.524 -1.524) (end 1.524 34.544) (layer B.CrtYd) (width 0.12))
  (fp_line (start 1.524 34.544) (end -1.524 34.544) (layer B.CrtYd) (width 0.12))
  (fp_line (start -1.524 34.544) (end -1.524 -1.524) (layer B.CrtYd) (width 0.12))
  (pad 14 thru_hole circle (at 0 33.02) (size 1.524 1.524) (drill 0.762) (layers *.Cu *.Mask))
  (pad 13 thru_hole circle (at 0 30.48) (size 1.524 1.524) (drill 0.762) (layers *.Cu *.Mask))
  (pad 12 thru_hole circle (at 0 27.94) (size 1.524 1.524) (drill 0.762) (layers *.Cu *.Mask))
  (pad 11 thru_hole circle (at 0 25.4) (size 1.524 1.524) (drill 0.762) (layers *.Cu *.Mask))
  (pad 10 thru_hole circle (at 0 22.86) (size 1.524 1.524) (drill 0.762) (layers *.Cu *.Mask))
  (pad 9 thru_hole circle (at 0 20.32) (size 1.524 1.524) (drill 0.762) (layers *.Cu *.Mask))
  (pad 8 thru_hole circle (at 0 17.78) (size 1.524 1.524) (drill 0.762) (layers *.Cu *.Mask))
  (pad 7 thru_hole circle (at 0 15.24) (size 1.524 1.524) (drill 0.762) (layers *.Cu *.Mask))
  (pad 6 thru_hole circle (at 0 12.7) (size 1.524 1.524) (drill 0.762) (layers *.Cu *.Mask))
  (pad 5 thru_hole circle (at 0 10.16) (size 1.524 1.524) (drill 0.762) (layers *.Cu *.Mask))
  (pad 4 thru_hole circle (at 0 7.62) (size 1.524 1.524) (drill 0.762) (layers *.Cu *.Mask))
  (pad 3 thru_hole circle (at 0 5.08) (size 1.524 1.524) (drill 0.762) (layers *.Cu *.Mask))
  (pad 2 thru_hole circle (at 0 2.54) (size 1.524 1.524) (drill 0.762) (layers *.Cu *.Mask))
  (pad 1 thru_hole circle (at 0 0) (size 1.524 1.524) (drill 0.762) (layers *.Cu *.Mask))
)
